/* XPM */
static char * shade_toggled_prelight_xpm[] = {
"23 23 139 2",
"  	c None",
". 	c #6A8EB8",
"+ 	c #BACFE6",
"@ 	c #E0DFDE",
"# 	c #DEDDDE",
"$ 	c #DDDDDE",
"% 	c #DDDEDE",
"& 	c #D2D9DF",
"* 	c #CADBE4",
"= 	c #D2E1EC",
"- 	c #D7E6EF",
"; 	c #D1E1EC",
"> 	c #DFDEDE",
", 	c #D9DCDE",
"' 	c #C6D9E4",
") 	c #EAF2F7",
"! 	c #FCFCFC",
"~ 	c #FBFBFB",
"{ 	c #E9F1F6",
"] 	c #C5D8E4",
"^ 	c #D8DCDF",
"/ 	c #C3D9E7",
"( 	c #F5F6F7",
"_ 	c #F7F7F7",
": 	c #F5F5F5",
"< 	c #F4F4F4",
"[ 	c #F5F7F8",
"} 	c #C2D8E6",
"| 	c #DCDDDE",
"1 	c #BDD4E2",
"2 	c #F0F2F3",
"3 	c #F3F3F1",
"4 	c #EFEFEE",
"5 	c #E3E9EC",
"6 	c #F2F2F1",
"7 	c #EFF2F4",
"8 	c #DFDFDE",
"9 	c #CBD7E0",
"0 	c #D0E1EB",
"a 	c #F0EFEF",
"b 	c #EAE9E9",
"c 	c #A1D2EF",
"d 	c #029FFC",
"e 	c #92CCEE",
"f 	c #F0F0F0",
"g 	c #CDE0EC",
"h 	c #BAD2E2",
"i 	c #EAEAED",
"j 	c #E6E5E5",
"k 	c #E5E4E4",
"l 	c #9BCDEB",
"m 	c #0FA3FB",
"n 	c #90D2FB",
"o 	c #11A4FB",
"p 	c #90CAEC",
"q 	c #E8ECEF",
"r 	c #DBDCDE",
"s 	c #B1D0E4",
"t 	c #EAEAE9",
"u 	c #9ACAE7",
"v 	c #0DA2FB",
"w 	c #B5E0FA",
"x 	c #F9F9F8",
"y 	c #C2E6FB",
"z 	c #8CC7E8",
"A 	c #EBECEA",
"B 	c #ADCFE4",
"C 	c #E8E7E7",
"D 	c #DAD9D9",
"E 	c #7AC0EA",
"F 	c #B5DFF9",
"G 	c #EEEDED",
"H 	c #C1E4FA",
"I 	c #73BEEB",
"J 	c #E7E7E7",
"K 	c #D9DCDF",
"L 	c #AECFE4",
"M 	c #E3E4E4",
"N 	c #D5D4D3",
"O 	c #ECEEEE",
"P 	c #DEE7ED",
"Q 	c #C6CFD4",
"R 	c #DBE5EA",
"S 	c #EEF0F1",
"T 	c #E2E4E4",
"U 	c #B4D1E3",
"V 	c #CFDBE2",
"W 	c #D2D1D0",
"X 	c #D0CFCE",
"Y 	c #6AB6E4",
"Z 	c #009EFB",
"` 	c #5CB4E7",
" .	c #D3D2D1",
"..	c #CFDAE2",
"+.	c #C1D5E1",
"@.	c #99CAE7",
"#.	c #D9D9D9",
"$.	c #CBC9C8",
"%.	c #DFDDDD",
"&.	c #F1F1F0",
"*.	c #E1E0DF",
"=.	c #DADAD9",
"-.	c #95C8E6",
";.	c #D4DADF",
">.	c #AFD0E4",
",.	c #B5D0E0",
"'.	c #D0D0CF",
").	c #CCCBCA",
"!.	c #D8D7D7",
"~.	c #CDCCCB",
"{.	c #D2CFCE",
"].	c #B1CEE0",
"^.	c #DDDCDE",
"/.	c #C6D7E1",
"(.	c #9DCBE8",
"_.	c #ACCCDE",
":.	c #D1D3D2",
"<.	c #C4C3C2",
"[.	c #C0BFBE",
"}.	c #C4C4C3",
"|.	c #D0D2D3",
"1.	c #A9CBDF",
"2.	c #C4D6E1",
"3.	c #A8CEE6",
"4.	c #7EC1E8",
"5.	c #B5CCDB",
"6.	c #CCD3D6",
"7.	c #CED2D5",
"8.	c #CCD2D5",
"9.	c #B5CEDB",
"0.	c #7EC0E8",
"a.	c #CFD9E0",
"b.	c #B9D2E2",
"c.	c #ADD0E4",
"d.	c #93C9E8",
"e.	c #8BC5E8",
"f.	c #D6DBDF",
"g.	c #CCD7DF",
"h.	c #CAD7E0",
". . . . . . . . . . . . . . . . . . . . . . . ",
"+ + + + + + + + + + + + + + + + + + + + + + + ",
"@ @ @ @ @ @ @ @ @ @ @ @ @ @ @ @ @ @ @ @ @ @ @ ",
"@ @ @ @ @ @ @ @ @ # $ % $ # @ @ @ @ @ @ @ @ @ ",
"@ @ @ @ @ @ @ $ & * = - ; * & $ @ @ @ @ @ @ @ ",
"@ @ @ @ @ > , ' ) ! ! ! ! ~ { ] , > @ @ @ @ @ ",
"@ @ @ @ > ^ / ( _ : < < < : _ [ } ^ > @ @ @ @ ",
"@ @ @ @ | 1 2 3 4 4 4 5 4 4 4 6 7 1 | @ @ @ @ ",
"@ @ @ 8 9 0 a b b b c d e b b b f g 9 8 @ @ @ ",
"@ @ @ $ h i j k k l m n o p k k j q h $ @ @ @ ",
"@ @ @ r s t @ @ u v w x y m z @ @ A s r @ @ @ ",
"@ @ @ ^ B C D D E F a D G H I D D J B ^ @ @ @ ",
"@ @ @ K L M N N O P Q Q Q R S N N T L K @ @ @ ",
"@ @ @ r U V W X Y Z Z Z Z Z ` X  ...U r @ @ @ ",
"@ @ @ # +.@.#.$.%.&.&.&.&.&.*.$.=.-.+.# @ @ @ ",
"@ @ @ @ ;.>.,.'.).!.!.!.!.!.~.{.].>.;.@ @ @ @ ",
"@ @ @ @ ^./.(._.:.<.[.[.[.}.|.1.(./.^.@ @ @ @ ",
"@ @ @ @ @ % 2.3.4.5.6.7.8.9.0.3.2.% @ @ @ @ @ ",
"@ @ @ @ @ @ $ a.b.c.d.e.d.c.b.a.$ @ @ @ @ @ @ ",
"@ @ @ @ @ @ @ > % f.g.h.g.f.% > @ @ @ @ @ @ @ ",
"@ @ @ @ @ @ @ @ @ @ > > > @ @ @ @ @ @ @ @ @ @ ",
"@ @ @ @ @ @ @ @ @ @ @ @ @ @ @ @ @ @ @ @ @ @ @ ",
"@ @ @ @ @ @ @ @ @ @ @ @ @ @ @ @ @ @ @ @ @ @ @ "};
