/* XPM */
static char * shade_toggled_inactive_xpm[] = {
"23 23 123 2",
"  	c None",
". 	c #CACACA",
"+ 	c #F9F9F9",
"@ 	c #E0DFDE",
"# 	c #DEDDDC",
"$ 	c #DDDCDB",
"% 	c #D2D1D0",
"& 	c #CAC9C9",
"* 	c #D2D1D1",
"= 	c #D7D6D6",
"- 	c #D1D1D0",
"; 	c #CAC9C8",
"> 	c #DFDEDD",
", 	c #D9D8D7",
"' 	c #C6C5C4",
") 	c #EAEAEA",
"! 	c #FCFCFC",
"~ 	c #FBFBFB",
"{ 	c #E9E9E9",
"] 	c #C5C4C3",
"^ 	c #D8D7D6",
"/ 	c #C3C3C2",
"( 	c #F5F5F5",
"_ 	c #F7F7F7",
": 	c #F4F4F4",
"< 	c #C2C2C1",
"[ 	c #DCDBDA",
"} 	c #BDBCBB",
"| 	c #F0F0EF",
"1 	c #F3F3F1",
"2 	c #EFEFEE",
"3 	c #E9E9E8",
"4 	c #F2F2F1",
"5 	c #EFEFEF",
"6 	c #CBCAC9",
"7 	c #D0CFCE",
"8 	c #F0EFEF",
"9 	c #EAE9E9",
"0 	c #CCCCCC",
"a 	c #8E8D8C",
"b 	c #C6C5C5",
"c 	c #F0F0F0",
"d 	c #CDCCCC",
"e 	c #BAB9B8",
"f 	c #EAE7E7",
"g 	c #E6E5E5",
"h 	c #E5E4E4",
"i 	c #C8C7C6",
"j 	c #939291",
"k 	c #CCCACA",
"l 	c #949392",
"m 	c #C4C3C2",
"n 	c #E8E8E7",
"o 	c #DBDAD9",
"p 	c #B1B0B0",
"q 	c #EAEAE9",
"r 	c #C6C5C3",
"s 	c #929190",
"t 	c #DBDBDB",
"u 	c #F9F9F8",
"v 	c #E2E1E1",
"w 	c #C0C0BE",
"x 	c #EBEBE9",
"y 	c #ADACAB",
"z 	c #E8E7E7",
"A 	c #DAD9D9",
"B 	c #B9B8B8",
"C 	c #DBDBDA",
"D 	c #EEEDED",
"E 	c #E1E0E0",
"F 	c #B7B5B5",
"G 	c #E7E7E7",
"H 	c #AEADAC",
"I 	c #E3E2E1",
"J 	c #D5D4D3",
"K 	c #EEEEED",
"L 	c #E7E6E6",
"M 	c #CFCECD",
"N 	c #E4E4E3",
"O 	c #E2E1E0",
"P 	c #B4B3B2",
"Q 	c #CFCFCF",
"R 	c #AFADAD",
"S 	c #8D8C8B",
"T 	c #AAAAA8",
"U 	c #D3D2D1",
"V 	c #CFCDCC",
"W 	c #C1C0BF",
"X 	c #999999",
"Y 	c #D9D8D8",
"Z 	c #CBC9C8",
"` 	c #DFDDDD",
" .	c #F1F1F0",
"..	c #E1E0DF",
"+.	c #DAD9D8",
"@.	c #959393",
"#.	c #D4D3D2",
"$.	c #AFAEAD",
"%.	c #B5B5B5",
"&.	c #D0D0CF",
"*.	c #CCCBCA",
"=.	c #D8D7D7",
"-.	c #CDCCCB",
";.	c #D2CFCE",
">.	c #9D9C9C",
",.	c #ACACAB",
"'.	c #D1D1CF",
").	c #C0BFBE",
"!.	c #C4C4C3",
"~.	c #D0D0D0",
"{.	c #A9A8A8",
"].	c #C4C3C3",
"^.	c #A8A8A7",
"/.	c #7E7D7D",
"(.	c #B5B4B4",
"_.	c #CCCBC9",
":.	c #CECCCB",
"<.	c #CCCAC8",
"[.	c #B5B5B3",
"}.	c #7E7C7C",
"|.	c #B9B8B7",
"1.	c #8B8A89",
"2.	c #D6D5D4",
". . . . . . . . . . . . . . . . . . . . . . . ",
"+ + + + + + + + + + + + + + + + + + + + + + + ",
"@ @ @ @ @ @ @ @ @ @ @ @ @ @ @ @ @ @ @ @ @ @ @ ",
"@ @ @ @ @ @ @ @ @ # $ $ $ # @ @ @ @ @ @ @ @ @ ",
"@ @ @ @ @ @ @ $ % & * = - ; % $ @ @ @ @ @ @ @ ",
"@ @ @ @ @ > , ' ) ! ! ! ! ~ { ] , > @ @ @ @ @ ",
"@ @ @ @ > ^ / ( _ ( : : : ( _ ( < ^ > @ @ @ @ ",
"@ @ @ @ [ } | 1 2 2 2 3 2 2 2 4 5 } [ @ @ @ @ ",
"@ @ @ > 6 7 8 9 9 9 0 a b 9 9 9 c d 6 > @ @ @ ",
"@ @ @ $ e f g h h i j k l m h h g n e $ @ @ @ ",
"@ @ @ o p q @ @ r s t u v j w @ @ x p o @ @ @ ",
"@ @ @ ^ y z A A B C 8 A D E F A A G y ^ @ @ @ ",
"@ @ @ , H I J J K L M M M N 8 J J O H , @ @ @ ",
"@ @ @ o P Q % 7 R S S S S S T 7 U V P o @ @ @ ",
"@ @ @ # W X Y Z `  . . . . ...Z +.@.W # @ @ @ ",
"@ @ @ @ #.$.%.&.*.=.=.=.=.=.-.;.p $.#.@ @ @ @ ",
"@ @ @ @ $ ' >.,.'.m ).).).!.~.{.>.' $ @ @ @ @ ",
"@ @ @ @ @ $ ].^./.(._.:.<.[.}.^.].$ @ @ @ @ @ ",
"@ @ @ @ @ @ $ M |.y j 1.j y |.M $ @ @ @ @ @ @ ",
"@ @ @ @ @ @ @ > $ 2.*.; *.2.$ > @ @ @ @ @ @ @ ",
"@ @ @ @ @ @ @ @ @ @ > > > @ @ @ @ @ @ @ @ @ @ ",
"@ @ @ @ @ @ @ @ @ @ @ @ @ @ @ @ @ @ @ @ @ @ @ ",
"@ @ @ @ @ @ @ @ @ @ @ @ @ @ @ @ @ @ @ @ @ @ @ "};
