/* XPM */
static char * stick_toggled_prelight_xpm[] = {
"23 23 108 2",
"  	c None",
". 	c #6A8EB8",
"+ 	c #BACFE6",
"@ 	c #E0DFDE",
"# 	c #DEDDDE",
"$ 	c #DDDDDE",
"% 	c #DDDEDE",
"& 	c #D2D9DF",
"* 	c #C2D3DC",
"= 	c #BCCAD4",
"- 	c #BDCBD3",
"; 	c #BBCAD5",
"> 	c #C3D4DC",
", 	c #DFDEDE",
"' 	c #D9DCDE",
") 	c #BFD2DD",
"! 	c #CBD3D7",
"~ 	c #EBEAE9",
"{ 	c #EDEDED",
"] 	c #EAE9E9",
"^ 	c #CDD4D9",
"/ 	c #BFD1DD",
"( 	c #D8DCDF",
"_ 	c #BACFDD",
": 	c #E5E5E6",
"< 	c #C9C7C6",
"[ 	c #C5C3C2",
"} 	c #E1DFDF",
"| 	c #E3E4E5",
"1 	c #BBD0DE",
"2 	c #DCDDDE",
"3 	c #BBD2E0",
"4 	c #E4E5E6",
"5 	c #D8D7D6",
"6 	c #CAC8C8",
"7 	c #D9D7D6",
"8 	c #E2E5E7",
"9 	c #BCD2E0",
"0 	c #DFDFDE",
"a 	c #CBD7E0",
"b 	c #C6D7E1",
"c 	c #E3E2E2",
"d 	c #CFCECD",
"e 	c #E4E3E3",
"f 	c #C3D6E1",
"g 	c #BAD2E2",
"h 	c #E5E6E9",
"i 	c #D6D5D5",
"j 	c #D4D3D2",
"k 	c #D7D6D5",
"l 	c #E3E7E9",
"m 	c #DBDCDE",
"n 	c #B1D0E4",
"o 	c #E9E9E8",
"p 	c #D9D8D8",
"q 	c #B9CFDC",
"r 	c #E9EAE9",
"s 	c #ADCFE4",
"t 	c #E9E8E8",
"u 	c #DFDEDD",
"v 	c #7CC2EA",
"w 	c #DDDDDC",
"x 	c #D9DCDF",
"y 	c #AECFE4",
"z 	c #E6E8E9",
"A 	c #F3F3F3",
"B 	c #E5E7E8",
"C 	c #B4D1E3",
"D 	c #D6E2E9",
"E 	c #E8E7E7",
"F 	c #D4E0E9",
"G 	c #C1D5E1",
"H 	c #9BCCE9",
"I 	c #E8E9E9",
"J 	c #EEEEEE",
"K 	c #E8E9E8",
"L 	c #97CBE9",
"M 	c #D4DADF",
"N 	c #AFD0E4",
"O 	c #BED8E8",
"P 	c #EEEDED",
"Q 	c #F4F3F3",
"R 	c #EEECEC",
"S 	c #B9D6E8",
"T 	c #DDDCDE",
"U 	c #9DCBE8",
"V 	c #B7D6E8",
"W 	c #E7E8E8",
"X 	c #F5F4F4",
"Y 	c #F9F8F8",
"Z 	c #E6E7E8",
"` 	c #B3D4E8",
" .	c #C4D6E1",
"..	c #A8CEE6",
"+.	c #7FC2E9",
"@.	c #C1D8E7",
"#.	c #D8DFE3",
"$.	c #DCE1E4",
"%.	c #C0D9E7",
"&.	c #7FC1E9",
"*.	c #CFD9E0",
"=.	c #B9D2E2",
"-.	c #ADD0E4",
";.	c #93C9E8",
">.	c #8BC5E8",
",.	c #D6DBDF",
"'.	c #CCD7DF",
").	c #CAD7E0",
". . . . . . . . . . . . . . . . . . . . . . . ",
"+ + + + + + + + + + + + + + + + + + + + + + + ",
"@ @ @ @ @ @ @ @ @ @ @ @ @ @ @ @ @ @ @ @ @ @ @ ",
"@ @ @ @ @ @ @ @ @ # $ % $ # @ @ @ @ @ @ @ @ @ ",
"@ @ @ @ @ @ @ $ & * = - ; > & $ @ @ @ @ @ @ @ ",
"@ @ @ @ @ , ' ) ! ~ { ] { ] ^ / ' , @ @ @ @ @ ",
"@ @ @ @ , ( _ : @ < [ [ [ < } | 1 ( , @ @ @ @ ",
"@ @ @ @ 2 3 4 5 6 6 6 6 6 6 6 7 8 9 2 @ @ @ @ ",
"@ @ @ 0 a b c d d d d d d d d d e f a 0 @ @ @ ",
"@ @ @ $ g h i j j j j j j j j j k l g $ @ @ @ ",
"@ @ @ m n o p p p p p q p p p p p r n m @ @ @ ",
"@ @ @ ( s t u u u u u v w u u u u t s ( @ @ @ ",
"@ @ @ x y z e e e e e A e e e e e B y x @ @ @ ",
"@ @ @ m C D E t t t t t t t t t t F C m @ @ @ ",
"@ @ @ # G H I J J J J J J J J J K L G # @ @ @ ",
"@ @ @ @ M N O P Q Q Q Q Q Q Q R S N M @ @ @ @ ",
"@ @ @ @ T b U V W X Y Y Y X Z ` U b T @ @ @ @ ",
"@ @ @ @ @ %  ...+.@.#.$.#.%.&... .% @ @ @ @ @ ",
"@ @ @ @ @ @ $ *.=.-.;.>.;.-.=.*.$ @ @ @ @ @ @ ",
"@ @ @ @ @ @ @ , % ,.'.).'.,.% , @ @ @ @ @ @ @ ",
"@ @ @ @ @ @ @ @ @ @ , , , @ @ @ @ @ @ @ @ @ @ ",
"@ @ @ @ @ @ @ @ @ @ @ @ @ @ @ @ @ @ @ @ @ @ @ ",
"@ @ @ @ @ @ @ @ @ @ @ @ @ @ @ @ @ @ @ @ @ @ @ "};
