/* XPM */
static char * stick_inactive_xpm[] = {
"23 23 96 2",
"  	c None",
". 	c #CACACA",
"+ 	c #F9F9F9",
"@ 	c #E0DFDE",
"# 	c #DEDDDC",
"$ 	c #DDDCDB",
"% 	c #D2D1D0",
"& 	c #CAC9C9",
"* 	c #D2D1D1",
"= 	c #D7D6D6",
"- 	c #D1D1D0",
"; 	c #CAC9C8",
"> 	c #DFDEDD",
", 	c #D9D8D7",
"' 	c #C6C5C4",
") 	c #EAEAEA",
"! 	c #FCFCFC",
"~ 	c #FBFBFB",
"{ 	c #E9E9E9",
"] 	c #C5C4C3",
"^ 	c #D8D7D6",
"/ 	c #C3C3C2",
"( 	c #F5F5F5",
"_ 	c #F7F7F7",
": 	c #F4F4F4",
"< 	c #C2C2C1",
"[ 	c #DCDBDA",
"} 	c #BDBCBB",
"| 	c #F0F0EF",
"1 	c #F3F3F1",
"2 	c #EFEFEE",
"3 	c #F2F2F1",
"4 	c #EFEFEF",
"5 	c #CBCAC9",
"6 	c #D0CFCE",
"7 	c #F0EFEF",
"8 	c #EAE9E9",
"9 	c #F0F0F0",
"0 	c #CDCCCC",
"a 	c #BAB9B8",
"b 	c #EAE7E7",
"c 	c #E6E5E5",
"d 	c #E5E4E4",
"e 	c #E8E8E7",
"f 	c #DBDAD9",
"g 	c #B1B0B0",
"h 	c #EAEAE9",
"i 	c #D3D2D1",
"j 	c #EBEBE9",
"k 	c #ADACAB",
"l 	c #E8E7E7",
"m 	c #DAD9D9",
"n 	c #B7B7B6",
"o 	c #D9D8D8",
"p 	c #E7E7E7",
"q 	c #AEADAC",
"r 	c #E3E2E1",
"s 	c #D5D4D3",
"t 	c #EDEDEC",
"u 	c #E2E1E0",
"v 	c #B4B3B2",
"w 	c #CFCFCF",
"x 	c #CFCDCC",
"y 	c #C1C0BF",
"z 	c #999999",
"A 	c #CBC9C8",
"B 	c #DAD9D8",
"C 	c #959393",
"D 	c #D4D3D2",
"E 	c #AFAEAD",
"F 	c #B5B5B5",
"G 	c #D0D0CF",
"H 	c #D2CFCE",
"I 	c #9D9C9C",
"J 	c #ACACAB",
"K 	c #D1D1CF",
"L 	c #C4C3C2",
"M 	c #C0BFBE",
"N 	c #C4C4C3",
"O 	c #D0D0D0",
"P 	c #A9A8A8",
"Q 	c #C4C3C3",
"R 	c #A8A8A7",
"S 	c #7E7D7D",
"T 	c #B5B4B4",
"U 	c #CCCBC9",
"V 	c #CECCCB",
"W 	c #CCCAC8",
"X 	c #B5B5B3",
"Y 	c #7E7C7C",
"Z 	c #CFCECD",
"` 	c #B9B8B7",
" .	c #939291",
"..	c #8B8A89",
"+.	c #D6D5D4",
"@.	c #CCCBCA",
". . . . . . . . . . . . . . . . . . . . . . . ",
"+ + + + + + + + + + + + + + + + + + + + + + + ",
"@ @ @ @ @ @ @ @ @ @ @ @ @ @ @ @ @ @ @ @ @ @ @ ",
"@ @ @ @ @ @ @ @ @ # $ $ $ # @ @ @ @ @ @ @ @ @ ",
"@ @ @ @ @ @ @ $ % & * = - ; % $ @ @ @ @ @ @ @ ",
"@ @ @ @ @ > , ' ) ! ! ! ! ~ { ] , > @ @ @ @ @ ",
"@ @ @ @ > ^ / ( _ ( : : : ( _ ( < ^ > @ @ @ @ ",
"@ @ @ @ [ } | 1 2 2 2 2 2 2 2 3 4 } [ @ @ @ @ ",
"@ @ @ > 5 6 7 8 8 8 8 8 8 8 8 8 9 0 5 > @ @ @ ",
"@ @ @ $ a b c d d d d d d d d d c e a $ @ @ @ ",
"@ @ @ f g h @ @ @ @ @ i @ @ @ @ @ j g f @ @ @ ",
"@ @ @ ^ k l m m m m m n o m m m m p k ^ @ @ @ ",
"@ @ @ , q r s s s s s t s s s s s u q , @ @ @ ",
"@ @ @ f v w % 6 6 6 6 6 6 6 6 6 i x v f @ @ @ ",
"@ @ @ # y z o A A A A A A A A A B C y # @ @ @ ",
"@ @ @ @ D E F G ] ] ] ] ] ] ] H g E D @ @ @ @ ",
"@ @ @ @ $ ' I J K L M M M N O P I ' $ @ @ @ @ ",
"@ @ @ @ @ $ Q R S T U V W X Y R Q $ @ @ @ @ @ ",
"@ @ @ @ @ @ $ Z ` k  ... .k ` Z $ @ @ @ @ @ @ ",
"@ @ @ @ @ @ @ > $ +.@.; @.+.$ > @ @ @ @ @ @ @ ",
"@ @ @ @ @ @ @ @ @ @ > > > @ @ @ @ @ @ @ @ @ @ ",
"@ @ @ @ @ @ @ @ @ @ @ @ @ @ @ @ @ @ @ @ @ @ @ ",
"@ @ @ @ @ @ @ @ @ @ @ @ @ @ @ @ @ @ @ @ @ @ @ "};
